<svg xmlns="http://www.w3.org/2000/svg" width="61" height="61" viewBox="0 0 61 61">
  <metadata><?xpacket begin="﻿" id="W5M0MpCehiHzreSzNTczkc9d"?>
<x:xmpmeta xmlns:x="adobe:ns:meta/" x:xmptk="Adobe XMP Core 5.6-c138 79.159824, 2016/09/14-01:09:01        ">
   <rdf:RDF xmlns:rdf="http://www.w3.org/1999/02/22-rdf-syntax-ns#">
      <rdf:Description rdf:about=""/>
   </rdf:RDF>
</x:xmpmeta>
                                                                                                    
                                                                                                    
                                                                                                    
                                                                                                    
                                                                                                    
                                                                                                    
                                                                                                    
                                                                                                    
                                                                                                    
                                                                                                    
                                                                                                    
                                                                                                    
                                                                                                    
                                                                                                    
                                                                                                    
                                                                                                    
                                                                                                    
                                                                                                    
                                                                                                    
                                                                                                    
                           
<?xpacket end="w"?></metadata>
<defs>
    <style>
      .cls-1 {
        fill: #e92518;
        fill-rule: evenodd;
      }
    </style>
  </defs>
  <path class="cls-1" d="M46.968,47.789a3.87,3.87,0,0,0,0,5.6,3.863,3.863,0,0,0,5.6,0A3.961,3.961,0,1,0,46.968,47.789Zm4.2,4.3a1.981,1.981,0,1,1-2.8-2.8,1.936,1.936,0,0,1,2.8,0A1.935,1.935,0,0,1,51.168,52.092Zm8.2-3.1-18-18.011,7.1-7.1h0l4.2-4.2h0l6.1-6.1a4.411,4.411,0,0,0,0-6.2l-5.1-5.1a4.347,4.347,0,0,0-6.2,0l-6.1,6.1-4.2,4.2-7.1,7.1-17.8-17.81a3.086,3.086,0,0,0-4.2,0l-7.1,7.105a2.9,2.9,0,0,0,0,4.2l2.1,2.1h0l5.7,5.7h0l5.6,5.6h0l4.4,4.4L2.713,47.043a1.012,1.012,0,0,0-.547.746L0.066,59.8a1.223,1.223,0,0,0,.3.9,0.91,0.91,0,0,0,.7.3h0.2L12.8,58.864a0.978,0.978,0,0,0,.263.032,0.777,0.777,0,0,0,.7-0.3l16.3-16.309,1.3,1.3h0l2.8,2.8h0L48.068,60.3a2.337,2.337,0,0,0,1.7.7,1.985,1.985,0,0,0,1.6-.7l8-8A2.355,2.355,0,0,0,59.369,48.991Zm-46.3,7.4-3.5-3.5,33.25-33.171,3.451,3.452Zm35.8-52.73a2.478,2.478,0,0,1,3.4,0l5.1,5.1a2.48,2.48,0,0,1,0,3.4l-5.4,5.4-8.5-8.5Zm-6.8,6.8,4.25,4.253,4.25,4.252-2.8,2.8-8.5-8.506ZM19.317,28.73l2.15-2.151a0.991,0.991,0,0,0-1.4-1.4l-2.15,2.151-1.45-1.45,3.5-3.5a0.99,0.99,0,0,0-1.4-1.4l-3.5,3.5-1.4-1.4,2.1-2.1a0.991,0.991,0,1,0-1.4-1.4l-2.1,2.1-1.4-1.4,3.5-3.5a0.991,0.991,0,1,0-1.4-1.4l-3.5,3.5-1.5-1.5,2.1-2.1a0.99,0.99,0,0,0-1.4-1.4l-2.1,2.1-1.4-1.4,3.5-3.5a0.991,0.991,0,1,0-1.4-1.4l-3.5,3.5-1.4-1.4a0.967,0.967,0,0,1,0-1.4l7.1-7.1a0.908,0.908,0,0,1,.7-0.3,1.081,1.081,0,0,1,.7.3l17.8,17.81-8.5,8.505ZM37.868,14.771l3.5,3.5L8.117,51.443,4.666,47.991Zm-34,35.221,3.281,3.284a1.061,1.061,0,0,0,.219.319l3.615,3.616L2.366,58.7Zm54.1,0.9-8,8a0.453,0.453,0,0,1-.5,0L39.118,48.54l3.55-3.552a0.99,0.99,0,1,0-1.4-1.4l-3.55,3.551-1.45-1.45,2.1-2.1a0.991,0.991,0,0,0-1.4-1.4l-2.1,2.1-1.4-1.4,3.5-3.5a0.991,0.991,0,1,0-1.4-1.4l-3.5,3.5-0.6-.6,8.5-8.5,18,18.011A0.453,0.453,0,0,1,57.969,50.891Z"/>
</svg>
