<svg xmlns="http://www.w3.org/2000/svg" width="24" height="24" viewBox="0 0 24 24">
  <metadata><?xpacket begin="﻿" id="W5M0MpCehiHzreSzNTczkc9d"?>
<x:xmpmeta xmlns:x="adobe:ns:meta/" x:xmptk="Adobe XMP Core 5.6-c138 79.159824, 2016/09/14-01:09:01        ">
   <rdf:RDF xmlns:rdf="http://www.w3.org/1999/02/22-rdf-syntax-ns#">
      <rdf:Description rdf:about=""/>
   </rdf:RDF>
</x:xmpmeta>
                                                                                                    
                                                                                                    
                                                                                                    
                                                                                                    
                                                                                                    
                                                                                                    
                                                                                                    
                                                                                                    
                                                                                                    
                                                                                                    
                                                                                                    
                                                                                                    
                                                                                                    
                                                                                                    
                                                                                                    
                                                                                                    
                                                                                                    
                                                                                                    
                                                                                                    
                                                                                                    
                           
<?xpacket end="w"?></metadata>
<defs>
    <style>
      .cls-1 {
        fill: #000;
        fill-rule: evenodd;
      }
    </style>
  </defs>
  <path id="Forma_1" data-name="Forma 1" class="cls-1" d="M15.093,0.283L0.4,14.961a1.016,1.016,0,0,0-.285.648L0,23.082a0.881,0.881,0,0,0,.285.663A0.946,0.946,0,0,0,.949,24H0.965l7.262-.064a0.919,0.919,0,0,0,.664-0.253l14.824-14.8a0.962,0.962,0,0,0,0-1.342L16.437,0.267A0.981,0.981,0,0,0,15.093.283ZM7.815,22.07l-5.9.08,0.095-6.131,9.809-9.8,5.933,5.926ZM19.079,10.822L13.163,4.9l2.61-2.608L21.69,8.215Z"/>
</svg>
