<svg xmlns="http://www.w3.org/2000/svg" width="24" height="18" viewBox="0 0 24 18">
  <metadata><?xpacket begin="﻿" id="W5M0MpCehiHzreSzNTczkc9d"?>
<x:xmpmeta xmlns:x="adobe:ns:meta/" x:xmptk="Adobe XMP Core 5.6-c138 79.159824, 2016/09/14-01:09:01        ">
   <rdf:RDF xmlns:rdf="http://www.w3.org/1999/02/22-rdf-syntax-ns#">
      <rdf:Description rdf:about=""/>
   </rdf:RDF>
</x:xmpmeta>
                                                                                                    
                                                                                                    
                                                                                                    
                                                                                                    
                                                                                                    
                                                                                                    
                                                                                                    
                                                                                                    
                                                                                                    
                                                                                                    
                                                                                                    
                                                                                                    
                                                                                                    
                                                                                                    
                                                                                                    
                                                                                                    
                                                                                                    
                                                                                                    
                                                                                                    
                                                                                                    
                           
<?xpacket end="w"?></metadata>
<defs>
    <style>
      .cls-1 {
        fill: #9c9c9c;
        fill-rule: evenodd;
      }
    </style>
  </defs>
  <path class="cls-1" d="M21.1,0.027H2.964A2.917,2.917,0,0,0,.03,2.92V15.136a2.916,2.916,0,0,0,2.934,2.891H21.091a2.916,2.916,0,0,0,2.934-2.891V2.924A2.913,2.913,0,0,0,21.1.027Zm1.594,15.109a1.584,1.584,0,0,1-1.594,1.57H2.964a1.584,1.584,0,0,1-1.594-1.57V2.924A1.585,1.585,0,0,1,2.964,1.353H21.091a1.585,1.585,0,0,1,1.594,1.571V15.136h0Zm-7.527-6.26,5.868-5.188a0.657,0.657,0,0,0,.05-0.935A0.68,0.68,0,0,0,20.133,2.7L12.04,9.865l-1.579-1.39a0.027,0.027,0,0,1-.01-0.015,1.029,1.029,0,0,0-.109-0.093L3.917,2.7a0.677,0.677,0,0,0-.948.054,0.653,0.653,0,0,0,.055.935L8.962,8.92,3.049,14.376a0.657,0.657,0,0,0-.03.935,0.688,0.688,0,0,0,.492.211,0.676,0.676,0,0,0,.457-0.176l6-5.536L11.6,11.244a0.676,0.676,0,0,0,.894,0l1.673-1.478,5.968,5.588a0.675,0.675,0,0,0,.948-0.025,0.655,0.655,0,0,0-.025-0.933Z"/>
</svg>
